…
bootstrap_df
```

    ## # A tibble: 5,000 x 4
    ##    r.squared intercept  tmin   log
    ##        <dbl>     <dbl> <dbl> <dbl>
    ##  1     0.907      7.45 1.03   2.04
    ##  2     0.896      7.36 1.03   2.03
    ##  3     0.918      7.48 1.04   2.05
    ##  4     0.899      7.91 0.998  2.07
    ##  5     0.913      6.73 1.07   1.97
    ##  6     0.919      6.87 1.06   1.99
    ##  7     0.918      7.11 1.03   2.00
    ##  8     0.907      7.14 1.03   2.00
    ##  9     0.916      7.10 1.05   2.01
    ## 10     0.918      7.18 1.05   2.02
    ## # ... with 4,990 more rows
…
